From shane@shane-desktop  Thu Dec 28 18:03:26 2017
Return-Path: <shane@shane-desktop>
X-Original-To: youremail@example.org
Delivered-To: script@example.org
Received: by example.org (Postfix, from userid 1000)
	id 8DF0610459A; Thu, 28 Dec 2017 18:03:26 +1000 (AEST)
Content-Type: multipart/mixed; boundary="877240018-1514448206=:5764"
MIME-Version: 1.0
Subject: This is the subject
To: <youremail@example.org>
X-Mailer: mail (GNU Mailutils 2.99.99)
Message-Id: <20171228080326.8DF0610459A@example.org>
Date: Thu, 28 Dec 2017 18:03:26 +1000 (AEST)
From: shane@shane-desktop (Shane Carlyon)

--877240018-1514448206=:5764
Content-ID: <20171228180326.5764@shane-desktop>
Content-Type: text/plain

This is the body of the email

--877240018-1514448206=:5764
Content-ID: <20171228180326.5764.1@shane-desktop>
Content-Type: application/octet-stream; name=send.txt
Content-Transfer-Encoding: base64
Content-Disposition: attachment; filename=send.txt

VGhpcyBpcyB0aGUgY29udGVudCBvZiB0aGUgYXR0YWNoZW1lbnQuCgo=
--877240018-1514448206=:5764--